{
"roads_geometry": "new_UG_115.shp",
"strands_geometry": "strand_115.shp",
"ug_crossing_geometry": "ug_crossings_115.shp",
"address_geometry": "addresses_115.shp",
"parcels_geometry": "parcels_115.shp",
"hut_geometry": "hut_point_115.shp",
"split_points": "split_points_115.shp",
"leadin_snap_points": "snap_points_115.shp",
"pole_geometry": "poles_115.shp",
"drop_pole_override": "drop_pole_override_115.shp",
"split_distance": 200, 
"snapping_radius": 0.5,
"projection": "+proj=utm +zone=17 +units=m",
"address_type_col": "address_ty",
"address_id_col": "address_id"
}